%YAML 1.1
%TAG !u! tag:unity3d.com,2011:
--- !u!114 &11400000
MonoBehaviour:
  m_ObjectHideFlags: 0
  m_CorrespondingSourceObject: {fileID: 0}
  m_PrefabInstance: {fileID: 0}
  m_PrefabAsset: {fileID: 0}
  m_GameObject: {fileID: 0}
  m_Enabled: 1
  m_EditorHideFlags: 0
  m_Script: {fileID: 11500000, guid: e9620f8c34305754d8cc9a7e49e852d9, type: 3}
  m_Name: Dialogues_es
  m_EditorClassIdentifier: 
  m_LocaleId:
    m_Code: es
  m_SharedData: {fileID: 11400000, guid: e14df016aaaacf649b7d25585334e821, type: 2}
  m_Metadata:
    m_Items: []
  m_TableData:
  - m_Id: 9100865536
    m_Localized: "Ha estado viviendo junto a los granjeros durante cuatro c\xEDrculos.
      Han estado teniendo mala cosecha desde entonces. debe ser su culpa"
    m_Metadata:
      m_Items: []
  - m_Id: 2932533413138432
    m_Localized: "Este tipo estaba teniendo un altercado con un amigo en la taberna.
      Rompi\xF3 una botella en la cabeza de su amigo. Ha sido un pensador lento desde
      entonces, pero sobrevivi\xF3."
    m_Metadata:
      m_Items: []
  - m_Id: 2933452737466368
    m_Localized: "\xA1Ella puede escribir y leer! \xA1Obviamente debe ser un abogado
      Satan\xE1s!"
    m_Metadata:
      m_Items: []
  - m_Id: 2933500644806656
    m_Localized: "\xA1El buf\xF3n del rey! Cuando se le pregunt\xF3 qui\xE9n es el
      tonto m\xE1s grande en la habitaci\xF3n, el buf\xF3n respondi\xF3 con \"El
      de la corona\"."
    m_Metadata:
      m_Items: []
  - m_Id: 2933542801756160
    m_Localized: "Parece que la reina no le dio al rey un heredero var\xF3n."
    m_Metadata:
      m_Items: []
  - m_Id: 2933593498308608
    m_Localized: "Un se\xF1or local. Aqu\xED hoy por cometer alta traici\xF3n. Estaba
      planeando derrocar al rey."
    m_Metadata:
      m_Items: []
  - m_Id: 2933624095756288
    m_Localized: "Otro verdugo. No lograron complacer a la multitud. Ser\xE1 mejor
      que mantengas tu buen trabajo o podr\xEDas terminar como ellos."
    m_Metadata:
      m_Items: []
  - m_Id: 2933686368587776
    m_Localized: Se hicieron amigos de los asquerosos roedores y trataron de derrocar
      la ciudad con sus amigas ratas.
    m_Metadata:
      m_Items: []
  - m_Id: 10113822886211584
    m_Localized: "He o\xEDdo que alguien ha estado robando manzanas en el mercado
      semanal.\r\nFinalmente atraparon al culpable. Suger\xED cortarle la mano, la
      quieren muerta."
    m_Metadata:
      m_Items: []
  - m_Id: 10114274407231488
    m_Localized: "Hombre mat\xF3 a todo un batall\xF3n y revivi\xF3 sus cad\xE1veres
      con magia oscura"
    m_Metadata:
      m_Items: []
  - m_Id: 10114503349121024
    m_Localized: "\xA1Esta mujer fue sorprendida teniendo coito prematrimonial! La
      iglesia realmente no est\xE1 contenta con ese comportamiento."
    m_Metadata:
      m_Items: []
  - m_Id: 13078950291034112
    m_Localized: "La princesa le mencion\xF3 a un guardia que pensaba que esta jovencita
      era \"extraordinariamente bonita\". Ahora, para evitar que la hija del rey
      tenga pensamientos profanos, ser\xE1 mejor que nos deshagamos de esta dama."
    m_Metadata:
      m_Items: []
  - m_Id: 13079043442331648
    m_Localized: "Nos dimos cuenta de que los cad\xE1veres despu\xE9s de que ejecutaras
      a personas desaparecieron. Ella experiment\xF3 con ellos por \"razones m\xE9dicas\".
      S\xED. \xBFQui\xE9n creer\xEDa eso?"
    m_Metadata:
      m_Items: []
  - m_Id: 13079121657712640
    m_Localized: "Se acost\xF3 con una de las amantes del rey. Mientras le preguntaban
      qu\xE9 estaba pensando, se ri\xF3 del rey y dijo \"Deus Vult\"."
    m_Metadata:
      m_Items: []
  - m_Id: 13079203312422912
    m_Localized: "El ej\xE9rcito del rey tom\xF3 algunas de sus reservas para el
      invierno mientras marchaba por su aldea. Aparentemente sin dejar nada.\r\nElla
      quem\xF3 sus tiendas en medio de la noche."
    m_Metadata:
      m_Items: []
  - m_Id: 13079281062236160
    m_Localized: "Un granjero lo encontr\xF3 acostado desnudo con sus cerdos una
      ma\xF1ana. Nadie sabe realmente lo que ha estado pasando all\xED."
    m_Metadata:
      m_Items: []
  - m_Id: 13079364516302848
    m_Localized: "No estaba muy contento por el hecho de que quemamos a su hija el
      verano pasado. As\xED que podr\xEDa haberse tirado encima de la estatua del
      rey en la plaza del pueblo..."
    m_Metadata:
      m_Items: []
  - m_Id: 13079435009970176
    m_Localized: "\xA1Se hace llamar pirata! Todo lo que nuestro reino tiene es un
      r\xEDo. Es un ladr\xF3n de un... r\xEDo... El hombre rob\xF3 varias botas peque\xF1as
      de comerciante."
    m_Metadata:
      m_Items: []
  - m_Id: 19550422096850944
    m_Localized: Bueno, eso es lo que obtienes por no reprochar los avances del rey...
    m_Metadata:
      m_Items: []
  references:
    version: 1
