%YAML 1.1
%TAG !u! tag:unity3d.com,2011:
--- !u!114 &11400000
MonoBehaviour:
  m_ObjectHideFlags: 0
  m_CorrespondingSourceObject: {fileID: 0}
  m_PrefabInstance: {fileID: 0}
  m_PrefabAsset: {fileID: 0}
  m_GameObject: {fileID: 0}
  m_Enabled: 1
  m_EditorHideFlags: 0
  m_Script: {fileID: 11500000, guid: e9620f8c34305754d8cc9a7e49e852d9, type: 3}
  m_Name: Dialogues_fr
  m_EditorClassIdentifier: 
  m_LocaleId:
    m_Code: fr
  m_SharedData: {fileID: 11400000, guid: e14df016aaaacf649b7d25585334e821, type: 2}
  m_Metadata:
    m_Items: []
  m_TableData:
  - m_Id: 9100865536
    m_Localized: "Elle vit \xE0 c\xF4t\xE9 des fermiers depuis quatre cercles. Depuis,
      ils ont de mauvaises r\xE9coltes. \xC7a doit \xEAtre sa faute"
    m_Metadata:
      m_Items: []
  - m_Id: 2932533413138432
    m_Localized: "Ce mec avait une altercation avec un ami \xE0 la taverne. A bris\xE9
      une bouteille sur la t\xEAte de son ami. Il a \xE9t\xE9 un penseur lent depuis
      lors, mais il a surv\xE9cu"
    m_Metadata:
      m_Items: []
  - m_Id: 2933452737466368
    m_Localized: "Elle sait \xE9crire et lire ! Doit \xE9videmment \xEAtre un avocat
      de Satan !"
    m_Metadata:
      m_Items: []
  - m_Id: 2933500644806656
    m_Localized: "Le bouffon du roi ! Lorsqu'on lui a demand\xE9 qui \xE9tait le
      plus grand imb\xE9cile dans la pi\xE8ce, le bouffon a r\xE9pondu \"Celui avec
      la couronne\"."
    m_Metadata:
      m_Items: []
  - m_Id: 2933542801756160
    m_Localized: "On dirait que la reine n'a pas r\xE9ussi \xE0 donner au roi un
      h\xE9ritier m\xE2le."
    m_Metadata:
      m_Items: []
  - m_Id: 2933593498308608
    m_Localized: "Un seigneur local. Ici aujourd'hui pour haute trahison. Il pr\xE9voyait
      de renverser le roi."
    m_Metadata:
      m_Items: []
  - m_Id: 2933624095756288
    m_Localized: "Un autre bourreau. Ils n'ont pas r\xE9ussi \xE0 plaire \xE0 la
      foule. Tu ferais mieux de continuer ton bon travail ou tu pourrais finir comme
      eux."
    m_Metadata:
      m_Items: []
  - m_Id: 2933686368587776
    m_Localized: "Ils se sont li\xE9s d'amiti\xE9 avec les sales rongeurs et ont
      tent\xE9 de renverser la ville avec leurs amis les rats"
    m_Metadata:
      m_Items: []
  - m_Id: 10113822886211584
    m_Localized: "J'ai entendu dire que quelqu'un avait vol\xE9 des pommes sur le
      march\xE9 hebdomadaire.\r\nIls ont finalement attrap\xE9 le coupable. J'ai
      propos\xE9 de lui couper la main, ils veulent sa mort."
    m_Metadata:
      m_Items: []
  - m_Id: 10114274407231488
    m_Localized: "Un homme a tu\xE9 tout un bataillon et a ressuscit\xE9 leurs cadavres
      avec de la magie noire"
    m_Metadata:
      m_Items: []
  - m_Id: 10114503349121024
    m_Localized: "Cette femme a \xE9t\xE9 surprise en train d'avoir un co\xEFt avant
      le mariage ! L'\xE9glise n'est vraiment pas contente de ce comportement"
    m_Metadata:
      m_Items: []
  - m_Id: 13078950291034112
    m_Localized: "La princesse a mentionn\xE9 \xE0 un garde qu'elle pensait que cette
      jeune femme \xE9tait \"extraordinairement jolie\". Maintenant, pour emp\xEAcher
      la fille du roi d'avoir des pens\xE9es impies, nous ferions mieux de nous d\xE9barrasser
      de cette dame."
    m_Metadata:
      m_Items: []
  - m_Id: 13079043442331648
    m_Localized: "Nous avons remarqu\xE9 que les cadavres apr\xE8s que vous ayez
      ex\xE9cut\xE9 des personnes ont disparu. Elle les a exp\xE9riment\xE9s pour
      des \"raisons m\xE9dicales\". Ouais. Qui croirait jamais que"
    m_Metadata:
      m_Items: []
  - m_Id: 13079121657712640
    m_Localized: "Il a couch\xE9 avec une des ma\xEEtresses du roi. Tout en \xE9tant
      interrog\xE9 sur ce qu'il pensait, il se moqua du roi et dit \"Deus Vult\""
    m_Metadata:
      m_Items: []
  - m_Id: 13079203312422912
    m_Localized: "L'arm\xE9e du roi a pris une partie de ses r\xE9serves pour l'hiver
      en marchant dans son village. Apparemment ne laissant rien.\r\nElle a br\xFBl\xE9
      leurs tentes au milieu de la nuit."
    m_Metadata:
      m_Items: []
  - m_Id: 13079281062236160
    m_Localized: "Un fermier le trouva couch\xE9 nu avec ses cochons un matin. Personne
      ne sait vraiment ce qui s'est pass\xE9 l\xE0-bas"
    m_Metadata:
      m_Items: []
  - m_Id: 13079364516302848
    m_Localized: "Il n'\xE9tait pas tr\xE8s content du fait que nous ayons br\xFBl\xE9
      sa fille l'\xE9t\xE9 dernier. Il aurait donc pu se jeter sur la statue du roi
      sur la place de la ville\u2026"
    m_Metadata:
      m_Items: []
  - m_Id: 13079435009970176
    m_Localized: "Se dit pirate ! Notre royaume n'a qu'un fleuve. C'est un voleur
      d'une... rivi\xE8re... L'homme a vol\xE9 plusieurs petites bottes de marchand."
    m_Metadata:
      m_Items: []
  - m_Id: 19550422096850944
    m_Localized: Eh bien, c'est ce que vous obtenez pour ne pas reproduire les avances
      du roi...
    m_Metadata:
      m_Items: []
  references:
    version: 1
