%YAML 1.1
%TAG !u! tag:unity3d.com,2011:
--- !u!114 &11400000
MonoBehaviour:
  m_ObjectHideFlags: 0
  m_CorrespondingSourceObject: {fileID: 0}
  m_PrefabInstance: {fileID: 0}
  m_PrefabAsset: {fileID: 0}
  m_GameObject: {fileID: 0}
  m_Enabled: 1
  m_EditorHideFlags: 0
  m_Script: {fileID: 11500000, guid: 73f823e431b33a94fb42a238854d640b, type: 3}
  m_Name: Burning
  m_EditorClassIdentifier: 
  weaponNameKey:
    m_TableReference:
      m_TableCollectionName: GUID:eb0ad9b46e471494b94a1483e32f4dc7
    m_TableEntryReference:
      m_KeyId: 25334640659836928
      m_Key: 
    m_FallbackState: 0
    m_WaitForCompletion: 0
    m_LocalVariables: []
  weaponSprite: {fileID: -5423096036155479439, guid: 57dca5d8ee7eb774f8fe1af1a86af14d, type: 3}
  weaponCost: 420
  weaponPrefab: {fileID: 7344543335239446808, guid: 006a8900e1389dc42bc1ff150016e828, type: 3}
  usedScene: 7
  weaponType: 2
  boughtAtStart: 0
  DMG: 2
  BRT: 9
  SHW: 8
  references:
    version: 1
