%YAML 1.1
%TAG !u! tag:unity3d.com,2011:
--- !u!114 &11400000
MonoBehaviour:
  m_ObjectHideFlags: 0
  m_CorrespondingSourceObject: {fileID: 0}
  m_PrefabInstance: {fileID: 0}
  m_PrefabAsset: {fileID: 0}
  m_GameObject: {fileID: 0}
  m_Enabled: 1
  m_EditorHideFlags: 0
  m_Script: {fileID: 11500000, guid: 5be51871efa6c3e4eae1703925c8f5ac, type: 3}
  m_Name: MagicTrowelTexts
  m_EditorClassIdentifier: 
  m_SharedTableData: {fileID: 11400000, guid: 7eee754f17886a44399c0e686cedf8da, type: 2}
  m_Tables:
  - {fileID: 11400000, guid: fe61bb6c8edf5ea4693ea748d6061ab8, type: 2}
  - {fileID: 11400000, guid: 722f877897e94664090a968c36591672, type: 2}
  - {fileID: 11400000, guid: e52f6ecf2f8236c409736addd6783812, type: 2}
  - {fileID: 11400000, guid: 4921d4725b582924a8d20579d66d301d, type: 2}
  - {fileID: 11400000, guid: f71dad8133ccc1f4f930dd10bfbfb5c6, type: 2}
  m_Extensions: []
  m_Group: String Table
  references:
    version: 1
