%YAML 1.1
%TAG !u! tag:unity3d.com,2011:
--- !u!114 &11400000
MonoBehaviour:
  m_ObjectHideFlags: 0
  m_CorrespondingSourceObject: {fileID: 0}
  m_PrefabInstance: {fileID: 0}
  m_PrefabAsset: {fileID: 0}
  m_GameObject: {fileID: 0}
  m_Enabled: 1
  m_EditorHideFlags: 0
  m_Script: {fileID: 11500000, guid: e9620f8c34305754d8cc9a7e49e852d9, type: 3}
  m_Name: Tutorial_en
  m_EditorClassIdentifier: 
  m_LocaleId:
    m_Code: en
  m_SharedData: {fileID: 11400000, guid: 0c44362e4f4ce9040a36cb0950d6409f, type: 2}
  m_Metadata:
    m_Items: []
  m_TableData:
  - m_Id: 22656856064
    m_Localized: "Hello youngster, you might wonder who I am -not that it matters
      though-,\r\nbut I was the king\u2019s very first executioner!\r\nI did this
      job for the longest, everyone has ever done it.\r\nNamely 16 months\r"
    m_Metadata:
      m_Items: []
  - m_Id: 33448800256
    m_Localized: And as I can not let you ruin my legacy, I am here to guide you
      through this business.
    m_Metadata:
      m_Items: []
  - m_Id: 47965286400
    m_Localized: "You see this is the Dungeon. As obviously seen in the big writing
      above.\r\nThe king's henchmen will introduce you to your customers and the
      reason for their conviction.\r\nTheir verdict is - you would have guessed -
      death.\r"
    m_Metadata:
      m_Items: []
  - m_Id: 426677383168
    m_Localized: If you have carefully listened to the cause of conviction, click
      on the arrow and let's continue to the weaponhall
    m_Metadata:
      m_Items: []
  - m_Id: 436898902016
    m_Localized: "Here you will have to choose the way your customer will leave us.
      \r\nYour job is to make the people and the king, of course, happy with your
      show. \r\nThere are three key elements of a performance: Brutality, Damage
      and Show- factor\r\n"
    m_Metadata:
      m_Items: []
  - m_Id: 849563889664
    m_Localized: "Now you see, do not choose the weapon best in everything. You have
      to choose the weapon best fitting for the customer. \r\nThere is one weapon
      which is always perfect for their execution. \r\nYour arsenal will grow with
      your career, so chances are you do not have the perfect weapon in your possession
      just yet. "
    m_Metadata:
      m_Items: []
  - m_Id: 853506535424
    m_Localized: "If you have chosen your worktool for the day, click \u201Cselect
      weapon\u201D to continue with your routine. "
    m_Metadata:
      m_Items: []
  - m_Id: 1040589271040
    m_Localized: "Welcome to the Tribune!\r\nMost of your executions will be held
      here. \r\nThere are only a few exceptions, where you will have to make the
      riverside your performance ground. But that simply depends on your choice of
      weapon.\r"
    m_Metadata:
      m_Items: []
  - m_Id: 1051863560192
    m_Localized: "See, you can now do your job: namely execute the culprit.\r\nBut
      beware: Depending on your choice of weapon, the king and the people will either
      be thrilled, neutral or annoyed by your performance.\r"
    m_Metadata:
      m_Items: []
  - m_Id: 1296915771392
    m_Localized: 'Depending on the people''s mood you will earn coin, with which
      you can buy new weaponry when clicking at the shop icon in the top right. '
    m_Metadata:
      m_Items: []
  - m_Id: 1298815791104
    m_Localized: "But the king\u2019s mood is not to be played with!\r\nIf you annoy
      him more than five times during your career, you will join me in the afterlife.\r\nYou
      can see your failures as hoisted red flags on the flag pools behind the king.
      \r\nSo be sure to never surpass five flags.\r"
    m_Metadata:
      m_Items: []
  - m_Id: 1354138660864
    m_Localized: "If you have the feeling your victim was convicted to death unrightfully,
      you can grant them \u201CPardon\u201D - and simply not do your job. \r\nIf
      the people agree with you on their innocence you will receive a large amount
      of coin donations. \r\nDownside being that \r\na red flag will definitely be
      hoisted. So think about that decision wisely. \r"
    m_Metadata:
      m_Items: []
  - m_Id: 1355845742592
    m_Localized: 'If you are not sure about your choice of weapon or the customer''s
      verdict anymore, you can go back to the dungeon or the weaponhall with navigating
      with the buttons on the left. '
    m_Metadata:
      m_Items: []
  - m_Id: 1624776126464
    m_Localized: 'Now that I have given you a run down of the job: Get to it, kid
      - and be cautious!'
    m_Metadata:
      m_Items: []
  references:
    version: 1
