%YAML 1.1
%TAG !u! tag:unity3d.com,2011:
--- !u!114 &11400000
MonoBehaviour:
  m_ObjectHideFlags: 0
  m_CorrespondingSourceObject: {fileID: 0}
  m_PrefabInstance: {fileID: 0}
  m_PrefabAsset: {fileID: 0}
  m_GameObject: {fileID: 0}
  m_Enabled: 1
  m_EditorHideFlags: 0
  m_Script: {fileID: 11500000, guid: bbb281ee3bf0b054c82ac2347e9e782c, type: 3}
  m_Name: Default Local Group
  m_EditorClassIdentifier: 
  m_GroupName: Default Local Group
  m_Data:
    m_SerializedData: []
  m_GUID: 5e5a93a7b61ae8f45aa8c2f9b57bb3ec
  m_SerializeEntries: []
  m_ReadOnly: 0
  m_Settings: {fileID: 11400000, guid: 5f50527eaf04bc34e948a2066a5a56b3, type: 2}
  m_SchemaSet:
    m_Schemas:
    - {fileID: 11400000, guid: bb314f70db5c0944091ca60e7e9169ed, type: 2}
    - {fileID: 11400000, guid: cce5f2f9804db0944929dfd0ab1e3391, type: 2}
