%YAML 1.1
%TAG !u! tag:unity3d.com,2011:
--- !u!114 &11400000
MonoBehaviour:
  m_ObjectHideFlags: 0
  m_CorrespondingSourceObject: {fileID: 0}
  m_PrefabInstance: {fileID: 0}
  m_PrefabAsset: {fileID: 0}
  m_GameObject: {fileID: 0}
  m_Enabled: 1
  m_EditorHideFlags: 0
  m_Script: {fileID: 11500000, guid: bbb281ee3bf0b054c82ac2347e9e782c, type: 3}
  m_Name: Localization-Assets-English (en)
  m_EditorClassIdentifier: 
  m_GroupName: Localization-Assets-English (en)
  m_Data:
    m_SerializedData: []
  m_GUID: 08ee5403b5975f44a9b5628a7c57f785
  m_SerializeEntries: []
  m_ReadOnly: 1
  m_Settings: {fileID: 11400000, guid: 5f50527eaf04bc34e948a2066a5a56b3, type: 2}
  m_SchemaSet:
    m_Schemas:
    - {fileID: 11400000, guid: f9d41350852cdc246abbf931934fa3e2, type: 2}
    - {fileID: 11400000, guid: 1d9ed9c04159d8e4f8dc856493942feb, type: 2}
