%YAML 1.1
%TAG !u! tag:unity3d.com,2011:
--- !u!114 &11400000
MonoBehaviour:
  m_ObjectHideFlags: 0
  m_CorrespondingSourceObject: {fileID: 0}
  m_PrefabInstance: {fileID: 0}
  m_PrefabAsset: {fileID: 0}
  m_GameObject: {fileID: 0}
  m_Enabled: 1
  m_EditorHideFlags: 0
  m_Script: {fileID: 11500000, guid: bbb281ee3bf0b054c82ac2347e9e782c, type: 3}
  m_Name: Localization-Asset-Tables-German (de)
  m_EditorClassIdentifier: 
  m_GroupName: Localization-Asset-Tables-German (de)
  m_Data:
    m_SerializedData: []
  m_GUID: 156ebd573f3e9f94ba50eb79ed0e3a83
  m_SerializeEntries: []
  m_ReadOnly: 1
  m_Settings: {fileID: 11400000, guid: 5f50527eaf04bc34e948a2066a5a56b3, type: 2}
  m_SchemaSet:
    m_Schemas:
    - {fileID: 11400000, guid: 05b8d29e45085554baa7339fdeac9893, type: 2}
    - {fileID: 11400000, guid: 48832dc3e5abd1740a31cd174d5066a7, type: 2}
