%YAML 1.1
%TAG !u! tag:unity3d.com,2011:
--- !u!114 &11400000
MonoBehaviour:
  m_ObjectHideFlags: 0
  m_CorrespondingSourceObject: {fileID: 0}
  m_PrefabInstance: {fileID: 0}
  m_PrefabAsset: {fileID: 0}
  m_GameObject: {fileID: 0}
  m_Enabled: 1
  m_EditorHideFlags: 0
  m_Script: {fileID: 11500000, guid: e9620f8c34305754d8cc9a7e49e852d9, type: 3}
  m_Name: AchievementDescriptions_en
  m_EditorClassIdentifier: 
  m_LocaleId:
    m_Code: en
  m_SharedData: {fileID: 11400000, guid: db64557f4a712ae4dbca822def1dbe55, type: 2}
  m_Metadata:
    m_Items: []
  m_TableData:
  - m_Id: 6403928064
    m_Localized: You made your first execution
    m_Metadata:
      m_Items: []
  - m_Id: 306904838144
    m_Localized: You killed 10 People in total
    m_Metadata:
      m_Items: []
  - m_Id: 341155524608
    m_Localized: You killed 100 People in a single life
    m_Metadata:
      m_Items: []
  - m_Id: 373069983744
    m_Localized: You bought your first Cloth
    m_Metadata:
      m_Items: []
  - m_Id: 408138559488
    m_Localized: You bought over 20 Clothes
    m_Metadata:
      m_Items: []
  - m_Id: 2862184628137984
    m_Localized: You pardoned your first victim
    m_Metadata:
      m_Items: []
  - m_Id: 2934405056868352
    m_Localized: ???
    m_Metadata:
      m_Items: []
  - m_Id: 4095458650271744
    m_Localized: You failed for the first time and couldn't satisfy the king
    m_Metadata:
      m_Items: []
  - m_Id: 6159616019443712
    m_Localized: You defeated Stage Fever with a drink
    m_Metadata:
      m_Items: []
  - m_Id: 6159814703624192
    m_Localized: The magic trowel will guide you with magic wisdom
    m_Metadata:
      m_Items: []
  references:
    version: 1
