%YAML 1.1
%TAG !u! tag:unity3d.com,2011:
--- !u!114 &11400000
MonoBehaviour:
  m_ObjectHideFlags: 0
  m_CorrespondingSourceObject: {fileID: 0}
  m_PrefabInstance: {fileID: 0}
  m_PrefabAsset: {fileID: 0}
  m_GameObject: {fileID: 0}
  m_Enabled: 1
  m_EditorHideFlags: 0
  m_Script: {fileID: 11500000, guid: 5b11a58205ec3474ca216360e9fa74a8, type: 3}
  m_Name: UI Text Shared Data
  m_EditorClassIdentifier: 
  m_TableCollectionName: UI Text
  m_TableCollectionNameGuidString: 5cdca9508c38c1149a9313bc09bc1937
  m_Entries:
  - m_Id: 689506847387648
    m_Key: ui.startgame
    m_Metadata:
      m_Items: []
  - m_Id: 689540351488000
    m_Key: ui.settings
    m_Metadata:
      m_Items: []
  - m_Id: 689571368366080
    m_Key: ui.credits
    m_Metadata:
      m_Items: []
  - m_Id: 689643690749952
    m_Key: ui.exit
    m_Metadata:
      m_Items: []
  - m_Id: 689715560148992
    m_Key: ui.weapons
    m_Metadata:
      m_Items: []
  - m_Id: 689750121213952
    m_Key: ui.dungeon
    m_Metadata:
      m_Items: []
  - m_Id: 689783579176960
    m_Key: ui.closet
    m_Metadata:
      m_Items: []
  - m_Id: 689849169702912
    m_Key: ui.mainstage
    m_Metadata:
      m_Items: []
  - m_Id: 689881532952576
    m_Key: ui.river
    m_Metadata:
      m_Items: []
  - m_Id: 690567737864192
    m_Key: ui.weapons.select
    m_Metadata:
      m_Items: []
  - m_Id: 690729549918208
    m_Key: ui.weapons.stats
    m_Metadata:
      m_Items: []
  - m_Id: 690824571875328
    m_Key: ui.weapons.damage
    m_Metadata:
      m_Items: []
  - m_Id: 690933435035648
    m_Key: ui.weapons.brutality
    m_Metadata:
      m_Items: []
  - m_Id: 691037629935616
    m_Key: ui.weapons.show
    m_Metadata:
      m_Items: []
  - m_Id: 691395148214272
    m_Key: ui.scenes
    m_Metadata:
      m_Items: []
  - m_Id: 691677974327296
    m_Key: ui.mainmenu
    m_Metadata:
      m_Items: []
  - m_Id: 693179342221312
    m_Key: ui.pleasechooseweapon
    m_Metadata:
      m_Items: []
  - m_Id: 903041950953472
    m_Key: ui.weaponsshop
    m_Metadata:
      m_Items: []
  - m_Id: 903202496327680
    m_Key: ui.outfitshop
    m_Metadata:
      m_Items: []
  - m_Id: 2330993418842112
    m_Key: ui.stages
    m_Metadata:
      m_Items: []
  - m_Id: 2352543907983360
    m_Key: ui.alreadybought
    m_Metadata:
      m_Items: []
  - m_Id: 2352645959593984
    m_Key: ui.buy
    m_Metadata:
      m_Items: []
  - m_Id: 2356120483278848
    m_Key: ui.tooexpensive
    m_Metadata:
      m_Items: []
  - m_Id: 5557564132831232
    m_Key: ui.clothes.hat
    m_Metadata:
      m_Items: []
  - m_Id: 5557621464772608
    m_Key: ui.clothes.shirt
    m_Metadata:
      m_Items: []
  - m_Id: 5557693988483072
    m_Key: ui.clothes.pants
    m_Metadata:
      m_Items: []
  - m_Id: 5557749974052864
    m_Key: ui.clothes.deco
    m_Metadata:
      m_Items: []
  - m_Id: 17919550289522688
    m_Key: ui.failuretext
    m_Metadata:
      m_Items: []
  - m_Id: 17925133231108096
    m_Key: ui.failuretitle
    m_Metadata:
      m_Items: []
  - m_Id: 18447696080318464
    m_Key: ui.magic
    m_Metadata:
      m_Items: []
  - m_Id: 18447749327007744
    m_Key: ui.hide
    m_Metadata:
      m_Items: []
  - m_Id: 18448268279853056
    m_Key: ui.clothes
    m_Metadata:
      m_Items: []
  - m_Id: 18448392234119168
    m_Key: ui.weapon
    m_Metadata:
      m_Items: []
  - m_Id: 25824465796116480
    m_Key: ui.clearsavesprompt
    m_Metadata:
      m_Items: []
  - m_Id: 25824695115493376
    m_Key: ui.areyousure
    m_Metadata:
      m_Items: []
  - m_Id: 25824956269637632
    m_Key: ui.yes
    m_Metadata:
      m_Items: []
  - m_Id: 25824970328944640
    m_Key: ui.no
    m_Metadata:
      m_Items: []
  - m_Id: 26105704344104960
    m_Key: ui.execute
    m_Metadata:
      m_Items: []
  - m_Id: 26105821340020736
    m_Key: ui.pardon
    m_Metadata:
      m_Items: []
  m_Metadata:
    m_Items: []
  m_KeyGenerator:
    id: 0
  references:
    version: 1
    00000000:
      type: {class: DistributedUIDGenerator, ns: UnityEngine.Localization.Tables, asm: Unity.Localization}
      data:
        m_CustomEpoch: 1637413227671
