%YAML 1.1
%TAG !u! tag:unity3d.com,2011:
--- !u!114 &11400000
MonoBehaviour:
  m_ObjectHideFlags: 0
  m_CorrespondingSourceObject: {fileID: 0}
  m_PrefabInstance: {fileID: 0}
  m_PrefabAsset: {fileID: 0}
  m_GameObject: {fileID: 0}
  m_Enabled: 1
  m_EditorHideFlags: 0
  m_Script: {fileID: 11500000, guid: 5b11a58205ec3474ca216360e9fa74a8, type: 3}
  m_Name: MagicTrowelTexts Shared Data
  m_EditorClassIdentifier: 
  m_TableCollectionName: MagicTrowelTexts
  m_TableCollectionNameGuidString: 7eee754f17886a44399c0e686cedf8da
  m_Entries:
  - m_Id: 10939445248
    m_Key: mtt.placeholder
    m_Metadata:
      m_Items: []
  - m_Id: 12201247813632
    m_Key: mtt.altercationfriend
    m_Metadata:
      m_Items: []
  - m_Id: 12359163359232
    m_Key: mtt.army
    m_Metadata:
      m_Items: []
  - m_Id: 12378662678528
    m_Key: mtt.badharvest
    m_Metadata:
      m_Items: []
  - m_Id: 12406294753280
    m_Key: mtt.deusvult
    m_Metadata:
      m_Items: []
  - m_Id: 12444899127296
    m_Key: mtt.formerexecutioner
    m_Metadata:
      m_Items: []
  - m_Id: 12481926443008
    m_Key: mtt.kingsjester
    m_Metadata:
      m_Items: []
  - m_Id: 12509625626624
    m_Key: mtt.lesbians
    m_Metadata:
      m_Items: []
  - m_Id: 12542597050368
    m_Key: mtt.locallord
    m_Metadata:
      m_Items: []
  - m_Id: 12568303939584
    m_Key: mtt.medic
    m_Metadata:
      m_Items: []
  - m_Id: 12589359345664
    m_Key: mtt.nakedpig
    m_Metadata:
      m_Items: []
  - m_Id: 12614147682304
    m_Key: mtt.necromancer
    m_Metadata:
      m_Items: []
  - m_Id: 12649870569472
    m_Key: mtt.pirate
    m_Metadata:
      m_Items: []
  - m_Id: 12667595698176
    m_Key: mtt.premaritalcoitus
    m_Metadata:
      m_Items: []
  - m_Id: 12712508305408
    m_Key: mtt.ratfriend
    m_Metadata:
      m_Items: []
  - m_Id: 12735312736256
    m_Key: mtt.satansadvocate
    m_Metadata:
      m_Items: []
  - m_Id: 12791759679488
    m_Key: mtt.stealingapples
    m_Metadata:
      m_Items: []
  - m_Id: 12825397997568
    m_Key: mtt.takingadump
    m_Metadata:
      m_Items: []
  - m_Id: 12864014954496
    m_Key: mtt.thequeen
    m_Metadata:
      m_Items: []
  - m_Id: 319422062047232
    m_Key: mtt.notreprocading
    m_Metadata:
      m_Items: []
  m_Metadata:
    m_Items: []
  m_KeyGenerator:
    id: 0
  references:
    version: 1
    00000000:
      type: {class: DistributedUIDGenerator, ns: UnityEngine.Localization.Tables, asm: Unity.Localization}
      data:
        m_CustomEpoch: 1643384007879
