%YAML 1.1
%TAG !u! tag:unity3d.com,2011:
--- !u!114 &11400000
MonoBehaviour:
  m_ObjectHideFlags: 0
  m_CorrespondingSourceObject: {fileID: 0}
  m_PrefabInstance: {fileID: 0}
  m_PrefabAsset: {fileID: 0}
  m_GameObject: {fileID: 0}
  m_Enabled: 1
  m_EditorHideFlags: 0
  m_Script: {fileID: 11500000, guid: c4f69dd062fc4be58de1d1d7cc7783c2, type: 3}
  m_Name: Aliena Marthens
  m_EditorClassIdentifier: 
  peepleName: Aliena Marthens
  hairFront: {fileID: 5868910728134436409, guid: a7d30d4c4ae6e3345a9c461c487b2dd4, type: 3}
  hairBack: {fileID: 8431381439147430460, guid: a7d30d4c4ae6e3345a9c461c487b2dd4, type: 3}
  pantsBack: {fileID: -5241100941241784541, guid: 56b654d3866f37e4694feb41d4983b2f, type: 3}
  pantsFront: {fileID: 3880307992307333747, guid: 56b654d3866f37e4694feb41d4983b2f, type: 3}
