%YAML 1.1
%TAG !u! tag:unity3d.com,2011:
--- !u!114 &11400000
MonoBehaviour:
  m_ObjectHideFlags: 0
  m_CorrespondingSourceObject: {fileID: 0}
  m_PrefabInstance: {fileID: 0}
  m_PrefabAsset: {fileID: 0}
  m_GameObject: {fileID: 0}
  m_Enabled: 1
  m_EditorHideFlags: 0
  m_Script: {fileID: 11500000, guid: c4f69dd062fc4be58de1d1d7cc7783c2, type: 3}
  m_Name: Thora Viola
  m_EditorClassIdentifier: 
  peepleName: Thora Viola
  hairFront: {fileID: 8962452520103656004, guid: 4d3490b6e3f757248b2c35735a18fd7e, type: 3}
  hairBack: {fileID: -6846875253251326422, guid: 4d3490b6e3f757248b2c35735a18fd7e, type: 3}
  pantsBack: {fileID: -5241100941241784541, guid: 56b654d3866f37e4694feb41d4983b2f, type: 3}
  pantsFront: {fileID: 3880307992307333747, guid: 56b654d3866f37e4694feb41d4983b2f, type: 3}
