%YAML 1.1
%TAG !u! tag:unity3d.com,2011:
--- !u!114 &11400000
MonoBehaviour:
  m_ObjectHideFlags: 0
  m_CorrespondingSourceObject: {fileID: 0}
  m_PrefabInstance: {fileID: 0}
  m_PrefabAsset: {fileID: 0}
  m_GameObject: {fileID: 0}
  m_Enabled: 1
  m_EditorHideFlags: 0
  m_Script: {fileID: 11500000, guid: e9620f8c34305754d8cc9a7e49e852d9, type: 3}
  m_Name: Outfits_la
  m_EditorClassIdentifier: 
  m_LocaleId:
    m_Code: la
  m_SharedData: {fileID: 11400000, guid: 659836c4e40856248898ca124ec47b33, type: 2}
  m_Metadata:
    m_Items: []
  m_TableData:
  - m_Id: 12573749248
    m_Localized: Nigrum Braccae
    m_Metadata:
      m_Items: []
  - m_Id: 292128305152
    m_Localized: Capillus longus Brown
    m_Metadata:
      m_Items: []
  - m_Id: 198318990127104
    m_Localized: Nigrum larva
    m_Metadata:
      m_Items: []
  - m_Id: 198911683031040
    m_Localized: Brown Hood
    m_Metadata:
      m_Items: []
  - m_Id: 199055061118976
    m_Localized: White Underwear
    m_Metadata:
      m_Items: []
  - m_Id: 199193351516160
    m_Localized: Black Robe
    m_Metadata:
      m_Items: []
  - m_Id: 199258770075648
    m_Localized: Blue Dress
    m_Metadata:
      m_Items: []
  - m_Id: 199574236262400
    m_Localized: Lacing Shirt
    m_Metadata:
      m_Items: []
  - m_Id: 199811981996032
    m_Localized: Rose Robe
    m_Metadata:
      m_Items: []
  - m_Id: 200119562891264
    m_Localized: Vest
    m_Metadata:
      m_Items: []
  - m_Id: 3106625677438976
    m_Localized: Catena aurea
    m_Metadata:
      m_Items: []
  - m_Id: 8134990868262912
    m_Localized: Cerebrum in Jar
    m_Metadata:
      m_Items: []
  - m_Id: 8135296083570688
    m_Localized: Pestilentiae Doctor
    m_Metadata:
      m_Items: []
  - m_Id: 8303026384416768
    m_Localized: Nativitas Domini Hat
    m_Metadata:
      m_Items: []
  - m_Id: 8305547018514432
    m_Localized: Metal Chain
    m_Metadata:
      m_Items: []
  - m_Id: 12763844731826176
    m_Localized: Spongia Braccae
    m_Metadata:
      m_Items: []
  - m_Id: 12763952693211136
    m_Localized: Spongia Shirt
    m_Metadata:
      m_Items: []
  - m_Id: 12764032078802944
    m_Localized: Spongia Hat
    m_Metadata:
      m_Items: []
  references:
    version: 1
